…
In the preview of the food_survey_respond_df, there are 61 variables in
this dataset. Not all the variables will be needed in our analysis,
therefore, only the variables of interest will be selected and stored in
a new dataframe for easy access later.

``` r
weight_df<- new_respond_df %>% 
  select("Gender","exercise","weight")

weight_df %>% 
  count(weight) # to identify which responds needs cleaning / removing
```

    ## # A tibble: 31 × 2
    ##    weight     n
    ##    <chr>  <int>
    ##  1 110        1
    ##  2 115        1
    ##  3 116        1
    ##  4 120        2
    ##  5 123        1
    ##  6 125        2
    ##  7 130        2
    ##  8 135        4
    ##  9 137        1
    ## 10 140        5
    ## # ℹ 21 more rows
…
``` r
library(stringr)
weight_df$weight <- str_replace_all(weight_df$weight, "^144 lbs$", "144")
weight_df$weight <- str_replace_all(weight_df$weight, "^Not sure, 240$", "240")

#Removing Row 2 & row 45
weight_df<- weight_df[-c(2,45),]

#Double checking the data within weight to make sure we have cleaned up properly
weight_df %>% 
  count(weight)
```

    ## # A tibble: 29 × 2
    ##    weight     n
    ##    <chr>  <int>
    ##  1 110        1
    ##  2 115        1
    ##  3 116        1
    ##  4 120        2
    ##  5 123        1
    ##  6 125        2
    ##  7 130        2
    ##  8 135        4
    ##  9 137        1
    ## 10 140        5
    ## # ℹ 19 more rows
…
#### Question 1: Replace Integer respond for weight with String

``` r
weight_df %>% 
  group_by (weight) %>% 
  summarize(count = sum(weight <129))
```

    ## # A tibble: 29 × 2
    ##    weight count
    ##    <chr>  <int>
    ##  1 110        1
    ##  2 115        1
    ##  3 116        1
    ##  4 120        2
    ##  5 123        1
    ##  6 125        2
    ##  7 130        0
    ##  8 135        0
    ##  9 137        0
    ## 10 140        0
    ## # ℹ 19 more rows

``` r
weight_df %>% 
  group_by (weight) %>% 
  summarize(count= sum(weight >129 & weight <159))
```

    ## # A tibble: 29 × 2
    ##    weight count
    ##    <chr>  <int>
    ##  1 110        0
    ##  2 115        0
    ##  3 116        0
    ##  4 120        0
    ##  5 123        0
    ##  6 125        0
    ##  7 130        2
    ##  8 135        4
    ##  9 137        1
    ## 10 140        5
    ## # ℹ 19 more rows

``` r
weight_df %>% 
  group_by (weight) %>% 
  summarize(count= sum(weight >159 & weight <189))
```

    ## # A tibble: 29 × 2
    ##    weight count
    ##    <chr>  <int>
    ##  1 110        0
    ##  2 115        0
    ##  3 116        0
    ##  4 120        0
    ##  5 123        0
    ##  6 125        0
    ##  7 130        0
    ##  8 135        0
    ##  9 137        0
    ## 10 140        0
    ## # ℹ 19 more rows

``` r
weight_df %>% 
  group_by (weight) %>% 
  summarize(count= sum(weight >=190))
```

    ## # A tibble: 29 × 2
    ##    weight count
    ##    <chr>  <int>
    ##  1 110        0
    ##  2 115        0
    ##  3 116        0
    ##  4 120        0
    ##  5 123        0
    ##  6 125        0
    ##  7 130        0
    ##  8 135        0
    ##  9 137        0
    ## 10 140        0
    ## # ℹ 19 more rows
…
