…
    ## The following objects are masked from 'package:base':
    ## 
    ##     intersect, setdiff, setequal, union

``` r
weight_df<- food_survey_respond_df %>% 
  select("Gender","exercise","weight") %>% 
  drop_na()

weight_df %>% 
  count(weight) # to identify which responds needs cleaning / removing
```

    ## # A tibble: 42 × 2
    ##    weight     n
    ##    <chr>  <int>
    ##  1 110        1
    ##  2 112        1
    ##  3 115        1
    ##  4 116        1
    ##  5 118        1
    ##  6 120        3
    ##  7 123        1
    ##  8 125        4
    ##  9 128        2
    ## 10 129        2
    ## # ℹ 32 more rows
…
``` r
library(stringr)
weight_df$weight <- str_replace_all(weight_df$weight, "^144 lbs$", "144")
weight_df$weight <- str_replace_all(weight_df$weight, "^Not sure, 240$", "240")

#Removing Row 3 & row 66
weight_df<- weight_df[-c(3,66),]

#Double checking the data within weight to make sure we have cleaned up properly
weight_df %>% 
  count(weight)
```

    ## # A tibble: 40 × 2
    ##    weight     n
    ##    <chr>  <int>
    ##  1 110        1
    ##  2 112        1
    ##  3 115        1
    ##  4 116        1
    ##  5 118        1
    ##  6 120        3
    ##  7 123        1
    ##  8 125        4
    ##  9 128        2
    ## 10 129        2
    ## # ℹ 30 more rows
…
``` r
weight_df <- weight_df %>% 
   mutate(weight_range = case_when(
     weight <130 ~'110 - 129 lbs',
     weight <160 ~ '130 - 159 lbs',
     weight < 190 ~'160 - 189 lbs',
     TRUE ~ '>=190 lbs'
     )
     )
weight_df %>% 
  count(weight_range, weight)
```

    ## # A tibble: 40 × 3
    ##    weight_range  weight     n
    ##    <chr>         <chr>  <int>
    ##  1 110 - 129 lbs 110        1
    ##  2 110 - 129 lbs 112        1
    ##  3 110 - 129 lbs 115        1
    ##  4 110 - 129 lbs 116        1
    ##  5 110 - 129 lbs 118        1
    ##  6 110 - 129 lbs 120        3
    ##  7 110 - 129 lbs 123        1
    ##  8 110 - 129 lbs 125        4
    ##  9 110 - 129 lbs 128        2
    ## 10 110 - 129 lbs 129        2
    ## # ℹ 30 more rows
…
